<?xml version="1.0" encoding="UTF-8"?>
<glyph name="bracketright" format="2">
	<advance width="298"/>
	<unicode hex="005D"/>
	<outline>
		<contour>
			<point x="58" y="700" type="line"/>
			<point x="258" y="700" type="line"/>
			<point x="258" y="33" type="line"/>
			<point x="238" y="0" type="line"/>
			<point x="55" y="0" type="line"/>
			<point x="40" y="23" type="line"/>
			<point x="40" y="93" type="line"/>
			<point x="171" y="83" type="line"/>
			<point x="171" y="603" type="line"/>
			<point x="154" y="613" type="line"/>
			<point x="42" y="603" type="line"/>
		</contour>
	</outline>
</glyph>
