<?xml version="1.0" encoding="UTF-8"?>
<glyph name="guillemotright" format="2">
	<advance width="410"/>
	<unicode hex="00BB"/>
	<outline>
		<component base="guillemotleft" xScale="-1" xOffset="410"/>
	</outline>
</glyph>
