<?xml version="1.0" encoding="UTF-8"?>
<glyph name="Lslash" format="2">
	<advance width="440"/>
	<unicode hex="0141"/>
	<outline>
		<contour>
			<point x="0" y="269" type="curve"/>
			<point x="0" y="269" type="line"/>
			<point x="38" y="208" type="line"/>
			<point x="64" y="208" type="line"/>
			<point x="112" y="233"/>
			<point x="207" y="308"/>
			<point x="260" y="351" type="curve"/>
			<point x="207" y="420" type="line"/>
			<point x="142" y="369"/>
			<point x="73" y="318"/>
		</contour>
		<component base="L" xOffset="10"/>
	</outline>
</glyph>
