<?xml version="1.0" encoding="UTF-8"?>
<glyph name="lcaron" format="2">
	<advance width="245"/>
	<unicode hex="013E"/>
	<outline>
		<component base="l"/>
		<component base="uni030C" xOffset="274" yOffset="200"/>
	</outline>
</glyph>
