<?xml version="1.0" encoding="UTF-8"?>
<glyph name="quotedblbase" format="2">
	<advance width="332"/>
	<unicode hex="201E"/>
	<outline>
		<component base="comma" xOffset="140"/>
		<component base="comma"/>
	</outline>
</glyph>
