<?xml version="1.0" encoding="UTF-8"?>
<glyph name="uni013C" format="2">
	<advance width="245"/>
	<unicode hex="013C"/>
	<outline>
		<component base="l"/>
		<component base="uni0326" xOffset="221"/>
	</outline>
</glyph>
